%YAML 1.1
%TAG !u! tag:unity3d.com,2011:
--- !u!21 &2100000
Material:
  serializedVersion: 6
  m_ObjectHideFlags: 0
  m_PrefabParentObject: {fileID: 0}
  m_PrefabInternal: {fileID: 0}
  m_Name: snake_statue_mat
  m_Shader: {fileID: 46, guid: 0000000000000000f000000000000000, type: 0}
  m_ShaderKeywords: _METALLICGLOSSMAP _NORMALMAP
  m_LightmapFlags: 5
  m_CustomRenderQueue: -1
  stringTagMap: {}
  m_SavedProperties:
    serializedVersion: 2
    m_TexEnvs:
      data:
        first:
          name: _MainTex
        second:
          m_Texture: {fileID: 2800000, guid: 4430f4c1b3b35814e9c2b3ca8121b25b, type: 3}
          m_Scale: {x: 1, y: 1}
          m_Offset: {x: 0, y: 0}
      data:
        first:
          name: _BumpMap
        second:
          m_Texture: {fileID: 2800000, guid: c6214b0928cfe7f409df6f1b4131e3d7, type: 3}
          m_Scale: {x: 1, y: 1}
          m_Offset: {x: 0, y: 0}
      data:
        first:
          name: _DetailNormalMap
        second:
          m_Texture: {fileID: 0}
          m_Scale: {x: 1, y: 1}
          m_Offset: {x: 0, y: 0}
      data:
        first:
          name: _ParallaxMap
        second:
          m_Texture: {fileID: 0}
          m_Scale: {x: 1, y: 1}
          m_Offset: {x: 0, y: 0}
      data:
        first:
          name: _OcclusionMap
        second:
          m_Texture: {fileID: 2800000, guid: 1628e7649cfba9e4e94ede6e7028868b, type: 3}
          m_Scale: {x: 1, y: 1}
          m_Offset: {x: 0, y: 0}
      data:
        first:
          name: _EmissionMap
        second:
          m_Texture: {fileID: 0}
          m_Scale: {x: 1, y: 1}
          m_Offset: {x: 0, y: 0}
      data:
        first:
          name: _DetailMask
        second:
          m_Texture: {fileID: 0}
          m_Scale: {x: 1, y: 1}
          m_Offset: {x: 0, y: 0}
      data:
        first:
          name: _DetailAlbedoMap
        second:
          m_Texture: {fileID: 0}
          m_Scale: {x: 1, y: 1}
          m_Offset: {x: 0, y: 0}
      data:
        first:
          name: _MetallicGlossMap
        second:
          m_Texture: {fileID: 2800000, guid: 3bc6d2b95d9361749820d9c0e42d08d7, type: 3}
          m_Scale: {x: 1, y: 1}
          m_Offset: {x: 0, y: 0}
      data:
        first:
          name: _SpecGlossMap
        second:
          m_Texture: {fileID: 0}
          m_Scale: {x: 1, y: 1}
          m_Offset: {x: 0, y: 0}
    m_Floats:
      data:
        first:
          name: _SrcBlend
        second: 1
      data:
        first:
          name: _DstBlend
        second: 0
      data:
        first:
          name: _Cutoff
        second: .5
      data:
        first:
          name: _Parallax
        second: .0199999996
      data:
        first:
          name: _ZWrite
        second: 1
      data:
        first:
          name: _Glossiness
        second: .5
      data:
        first:
          name: _BumpScale
        second: 1
      data:
        first:
          name: _OcclusionStrength
        second: .620000005
      data:
        first:
          name: _DetailNormalMapScale
        second: 1
      data:
        first:
          name: _UVSec
        second: 0
      data:
        first:
          name: _Mode
        second: 0
      data:
        first:
          name: _Metallic
        second: 0
      data:
        first:
          name: _EmissionScaleUI
        second: 0
    m_Colors:
      data:
        first:
          name: _EmissionColor
        second: {r: 0, g: 0, b: 0, a: 0}
      data:
        first:
          name: _Color
        second: {r: 1, g: 1, b: 1, a: 1}
      data:
        first:
          name: _SpecColor
        second: {r: .200000003, g: .200000003, b: .200000003, a: 1}
      data:
        first:
          name: _EmissionColorUI
        second: {r: 1, g: 1, b: 1, a: 1}
